<svg xmlns="http://www.w3.org/2000/svg" width="32.06" height="23.033" viewBox="0 0 32.06 23.033">
  <g id="_002-truck" data-name="002-truck" transform="translate(0.1 0.1)">
    <g id="Group_1084" data-name="Group 1084" transform="translate(4.248 16.461)">
      <g id="Group_1083" data-name="Group 1083" transform="translate(0 0)">
        <path id="Path_1704" data-name="Path 1704" d="M71.453,337.067a3.186,3.186,0,1,0,3.186,3.186A3.189,3.189,0,0,0,71.453,337.067Zm0,5.31a2.124,2.124,0,1,1,2.124-2.124A2.126,2.126,0,0,1,71.453,342.377Z" transform="translate(-68.267 -337.067)" fill="#ffcb08" stroke="#fff" stroke-width="0.2"/>
      </g>
    </g>
    <g id="Group_1086" data-name="Group 1086" transform="translate(22.302 16.461)">
      <g id="Group_1085" data-name="Group 1085" transform="translate(0 0)">
        <path id="Path_1705" data-name="Path 1705" d="M361.586,337.067a3.186,3.186,0,1,0,3.186,3.186A3.189,3.189,0,0,0,361.586,337.067Zm0,5.31a2.124,2.124,0,1,1,2.124-2.124A2.126,2.126,0,0,1,361.586,342.377Z" transform="translate(-358.4 -337.067)" fill="#ffcb08" stroke="#fff" stroke-width="0.2"/>
      </g>
    </g>
    <g id="Group_1088" data-name="Group 1088" transform="translate(20.178 5.841)">
      <g id="Group_1087" data-name="Group 1087">
        <path id="Path_1706" data-name="Path 1706" d="M335.865,174.078l-4.779-7.434a.531.531,0,0,0-.447-.244H324.8a.531.531,0,0,0-.531.531v13.275a.53.53,0,0,0,.531.531h2.124v-1.062h-1.593V167.462h5.02l4.538,7.059v5.154h-2.655v1.062h3.186a.53.53,0,0,0,.531-.531v-5.841A.53.53,0,0,0,335.865,174.078Z" transform="translate(-324.267 -166.4)" fill="#ffcb08" stroke="#fff" stroke-width="0.2"/>
      </g>
    </g>
    <g id="Group_1090" data-name="Group 1090" transform="translate(22.302 7.965)">
      <g id="Group_1089" data-name="Group 1089">
        <path id="Path_1707" data-name="Path 1707" d="M359.463,205.312V201.6h4.248v-1.062h-4.779a.531.531,0,0,0-.531.531v4.779a.53.53,0,0,0,.531.531H366.9v-1.062h-7.434Z" transform="translate(-358.401 -200.533)" fill="#ffcb08" stroke="#fff" stroke-width="0.2"/>
      </g>
    </g>
    <g id="Group_1092" data-name="Group 1092" transform="translate(0 2.124)">
      <g id="Group_1091" data-name="Group 1091">
        <path id="Path_1708" data-name="Path 1708" d="M20.709,106.667H.531A.531.531,0,0,0,0,107.2V124.19a.531.531,0,0,0,.531.531H4.779v-1.062H1.062v-15.93H20.178v15.93H10.089v1.062h10.62a.53.53,0,0,0,.531-.531V107.2A.531.531,0,0,0,20.709,106.667Z" transform="translate(0 -106.667)" fill="#ffcb08" stroke="#fff" stroke-width="0.2"/>
      </g>
    </g>
    <g id="Group_1094" data-name="Group 1094" transform="translate(0.531 16.992)">
      <g id="Group_1093" data-name="Group 1093">
        <rect id="Rectangle_226" data-name="Rectangle 226" width="3.186" height="1.062" fill="#ffcb08" stroke="#fff" stroke-width="0.2"/>
      </g>
    </g>
    <g id="Group_1096" data-name="Group 1096" transform="translate(11.151 16.992)">
      <g id="Group_1095" data-name="Group 1095">
        <rect id="Rectangle_227" data-name="Rectangle 227" width="9.027" height="1.062" fill="#ffcb08" stroke="#fff" stroke-width="0.2"/>
      </g>
    </g>
    <g id="Group_1098" data-name="Group 1098" transform="translate(29.205 16.992)">
      <g id="Group_1097" data-name="Group 1097">
        <rect id="Rectangle_228" data-name="Rectangle 228" width="2.124" height="1.062" fill="#ffcb08" stroke="#fff" stroke-width="0.2"/>
      </g>
    </g>
    <g id="Group_1100" data-name="Group 1100" transform="translate(2.124 4.248)">
      <g id="Group_1099" data-name="Group 1099">
        <rect id="Rectangle_229" data-name="Rectangle 229" width="18.585" height="1.062" fill="#ffcb08" stroke="#fff" stroke-width="0.2"/>
      </g>
    </g>
    <g id="Group_1102" data-name="Group 1102" transform="translate(6.903 19.116)">
      <g id="Group_1101" data-name="Group 1101" transform="translate(0 0)">
        <rect id="Rectangle_230" data-name="Rectangle 230" width="1.062" height="1.062" fill="#ffcb08" stroke="#fff" stroke-width="0.2"/>
      </g>
    </g>
    <g id="Group_1104" data-name="Group 1104" transform="translate(24.957 19.116)">
      <g id="Group_1103" data-name="Group 1103" transform="translate(0 0)">
        <rect id="Rectangle_231" data-name="Rectangle 231" width="1.062" height="1.062" fill="#ffcb08" stroke="#fff" stroke-width="0.2"/>
      </g>
    </g>
    <g id="Group_1106" data-name="Group 1106" transform="translate(2.124 0)">
      <g id="Group_1105" data-name="Group 1105" transform="translate(0 0)">
        <rect id="Rectangle_232" data-name="Rectangle 232" width="7.434" height="1.062" fill="#ffcb08" stroke="#fff" stroke-width="0.2"/>
      </g>
    </g>
    <g id="Group_1108" data-name="Group 1108" transform="translate(0 0)">
      <g id="Group_1107" data-name="Group 1107" transform="translate(0 0)">
        <rect id="Rectangle_233" data-name="Rectangle 233" width="1.062" height="1.062" fill="#ffcb08" stroke="#fff" stroke-width="0.2"/>
      </g>
    </g>
  </g>
</svg>
