<svg id="cinema" xmlns="http://www.w3.org/2000/svg" width="28.606" height="24.061" viewBox="0 0 28.606 24.061">
  <path id="Path_2603" data-name="Path 2603" d="M212.973,196.605l.81-.128a.452.452,0,0,1,.079-.006.505.505,0,0,1,.45.276l.372.73.128-.808a.505.505,0,0,1,.42-.419l.808-.129-.73-.372a.5.5,0,0,1-.27-.528l.128-.81-.578.578a.5.5,0,0,1-.586.092l-.731-.372.372.73a.5.5,0,0,1-.093.586Zm0,0" transform="translate(-199.534 -182.154)" fill="#fff"/>
  <path id="Path_2604" data-name="Path 2604" d="M9.923,27.827a1.514,1.514,0,0,0-2.586-1.071l-.357.357-2.5-2.5a1.514,1.514,0,0,1,0-2.141L17.472,9.481l-1.2-1.2a.5.5,0,0,0-.714,0L.148,23.691a.5.5,0,0,0,0,.714l1.821,1.821a2.524,2.524,0,0,1,3.5,3.5l1.82,1.82a.5.5,0,0,0,.714,0l1.706-1.705-.585-.584.357-.357A1.505,1.505,0,0,0,9.923,27.827Zm0,0" transform="translate(0 -7.631)" fill="#fff"/>
  <path id="Path_2605" data-name="Path 2605" d="M85.466,21.764l1.82,1.82a.5.5,0,0,0,.714,0L103.41,8.174a.505.505,0,0,0,0-.714l-1.822-1.821a2.524,2.524,0,0,1-3.5-3.5L96.271.324a.505.505,0,0,0-.714,0L92.832,3.048,80.148,15.731a.5.5,0,0,0,0,.714l1.821,1.821a2.52,2.52,0,0,1,3.709,3.1A2.448,2.448,0,0,1,85.466,21.764ZM98.474,10.254l.714.714-.714.714-.714-.714Zm-.714-.714-.714.714-.714-.714.714-.714ZM95.619,7.4l.714.714-.714.714-.714-.714ZM94.191,5.971l.714.714-.714.714-.714-.714ZM92.763,4.543l.714.714-.714.714-.714-.714ZM86.578,15.011,88,13.592,87.089,11.8a.5.5,0,0,1,.679-.679l1.788.909,1.419-1.419a.5.5,0,0,1,.858.436l-.321,1.984,1.788.912a.5.5,0,0,1-.151.948l-1.982.314-.311,1.982a.5.5,0,0,1-.42.42.475.475,0,0,1-.079.007.5.5,0,0,1-.449-.276L89,15.553l-1.982.314a.5.5,0,0,1-.436-.858Zm0,0" transform="translate(-74.952 -0.176)" fill="#fff"/>
</svg>
